<?xml version="1.0" encoding="utf-8"?>
<!-- Generated by IcoMoon.io -->
<!DOCTYPE svg PUBLIC "-//W3C//DTD SVG 1.1//EN" "http://www.w3.org/Graphics/SVG/1.1/DTD/svg11.dtd">
<svg version="1.1" xmlns="http://www.w3.org/2000/svg" xmlns:xlink="http://www.w3.org/1999/xlink" width="40" height="40" viewBox="0 0 40 40">
<path fill="#ffffff" d="M34.836 12.218c0.544-0.536 1.418-0.536 1.958 0s0.542 1.402 0 1.938l-15.816 15.66c-0.54 0.536-1.414 0.536-1.958 0l-15.816-15.66c-0.54-0.536-0.54-1.402 0-1.938 0.542-0.536 1.418-0.536 1.958 0l14.838 14.282 14.836-14.282z"></path>
</svg>
